…
2.How many users were active on the 1st of March 2019?<br>
┌───────────────────────────┐
│ count(DISTINCT user_name) │
│           int64           │
├───────────────────────────┤
│                        75 │
└───────────────────────────┘

3.For every user, what was the first song they listened to?<br>
┌─────────────────┬──────────────────────────────────────┐
│    user_name    │        First_Song_Listened_To        │
│     varchar     │               varchar                │
├─────────────────┼──────────────────────────────────────┤
│ 6d6f7274686f6e  │ The Leper Affinity                   │
│ Adsky_traktor   │ Сердце с долгом разлучается          │
│ AllSparks       │ Fever                                │
│ AlwinHummels    │ Geef me je angst                     │
│ Arcor           │ Exsultate Justi                      │
│ AscendedGravity │ Amoeba                               │
│ Bezvezenator    │ Devour                               │
│ BiamBioum       │ Beirut (14.12.16 - Live in Paris)    │
│ BlackGauna      │ Visionz                              │
│ Boris_Neo       │ Keep You Close                       │
│    ·            │       ·                              │
│    ·            │       ·                              │
│    ·            │       ·                              │
│ verfyjd         │ The Magic Number                     │
│ vitalikdobriy   │ Я из станицы                         │
│ welldread       │ Arizona                              │
│ whatisbetter    │ Need You Now                         │
│ xokoyotzin      │ First Time                           │
│ xvicarious      │ Beer Bucket List                     │
│ yellams         │ Hold You Under (feat. Marcus Bridge) │
│ zebedeemcdougal │ Roygbiv                              │
│ zergut          │ Chasing The Sun                      │
│ †AtzzkiySotona† │ Meridian                             │
├─────────────────┴──────────────────────────────────────┤
│ 202 rows (20 shown)                          2 columns │
└────────────────────────────────────────────────────────┘
…
